namespace = treasurefleet

#Startup
country_event = {
	id = treasurefleet.0
	title = treasurefleet.0.t
	desc = treasurefleet.0.d
	picture = NAVAL_MILITARY_eventPicture
	
	fire_only_once = yes
	is_triggered_only = yes
	hidden = yes
	
	trigger = {
		5226 = { NOT = { has_province_modifier = JY_LF_activator } }
	}
	
	option = {
		name = treasurefleet.0.a
		5226 = {
			add_permanent_province_modifier = { 
				name = JY_LF_countdown 
				duration = 1874 #To December 31 1449, to activate event chain January 1 1450
				hidden = yes
			}
			add_province_triggered_modifier = JY_LF_activator
			set_variable = {
				which = JY_LF_ports
				value = 0
			}
			set_variable = {
				which = JY_LF_yeild
				value = 0
			}
			set_variable = {
				which = JY_LF_total
				value = 0
			}
		}
		4925 = { add_permanent_province_modifier = { name = JY_LF_port duration = -1 } }
		4907 = { add_permanent_province_modifier = { name = JY_LF_port duration = -1 } }
		4871 = { add_permanent_province_modifier = { name = JY_LF_port duration = -1 } }
		4879 = { add_permanent_province_modifier = { name = JY_LF_port duration = -1 } }
		4884 = { add_permanent_province_modifier = { name = JY_LF_port duration = -1 } }
		4839 = { add_permanent_province_modifier = { name = JY_LF_port duration = -1 } }
		4955 = { add_permanent_province_modifier = { name = JY_LF_port duration = -1 } }
		4963 = { add_permanent_province_modifier = { name = JY_LF_port duration = -1 } }
	}
}

#Time to Sail
province_event = {
	id = treasurefleet.1
	title = treasurefleet.1.t
	desc = treasurefleet.1.d
	picture = TREASURE_FLEET_SHIP_eventPicture
	
	is_triggered_only = yes
	
	immediate = {
		hidden_effect = {
			JY_LF_tuuchuweg_check = yes
			5419 = { province_event = { id = treasurefleet.4 days = 75 } }
			if = {
				limit = { 
					5226 = {
						owner = {
							OR = {
								has_country_flag = treasure_fleet_no_pirates
								has_country_modifier = J33_pirate_dealings_mod
							}
						}
					}
				}
			}
			else = {
				5226 = { owner = { country_event = { id = treasurefleet.2 } } }
			}
		}
		5226 = {
			hidden_effect = {
				set_variable = {
					which = JY_LF_ports
					value = 0
				}
				JY_LF_calculate_yield = yes
				set_variable = {
					which = JY_LF_total
					value = 0
				}
			}
		}
	}
	
	option = {
		name = treasurefleet.1.a
		goto = 5226
		custom_tooltip = JY_LF_expected_yield
		if = {
			limit = { 
				has_global_flag = federation_crisis
				has_global_flag = JY_LF_refugees
			}
			set_global_flag = JY_LF_federation_crisis
			custom_tooltip = JY_LF_Y15_refugees
		}
		5226 = { JY_LF_learned = yes }
	}
}

#How to deal with pirates
country_event = {
	id = treasurefleet.2
	title = treasurefleet.2.t
	desc = treasurefleet.2.d
	picture = NAVAL_MILITARY_eventPicture
	
	is_triggered_only = yes
	
	option = {
		name = treasurefleet.2.a
		set_global_flag = JY_LF_P_bribe
		add_adm_power = -1
		custom_tooltip = JY_LF_P_bribe_t
		ai_chance = { 
			factor = 25
			modifier = {
				factor = 0.1
				ruler_has_personality = greedy_personality
			}
		}
	}
	
	option = {
		name = treasurefleet.2.a2
		set_global_flag = JY_LF_P_bribe
		set_global_flag = JY_LF_P_bribe_2
		add_adm_power = -1
		custom_tooltip = JY_LF_P_bribe_t
		highlight = yes
		trigger = {
			OR = {
				ruler_has_personality = fierce_negotiator_personality
				ruler_has_personality = charismatic_negotiator_personality
			}
		}
		ai_chance = {
			factor = 100
		}
	}
	
	option = {
		name = treasurefleet.2.b
		set_global_flag = JY_LF_P_sneak
		add_dip_power = -1
		custom_tooltip = JY_LF_P_sneak_t
		ai_chance = { 
			factor = 25
		}
	}
	
	option = {
		name = treasurefleet.2.b2
		set_global_flag = JY_LF_P_sneak
		set_global_flag = JY_LF_P_sneak_2
		add_dip_power = -1
		custom_tooltip = JY_LF_P_sneak_t
		highlight = yes
		trigger = {
			ruler_has_personality = secretive_personality
		}
		ai_chance = { 
			factor = 100
		}
	}
	
	option = {
		name = treasurefleet.2.c
		set_global_flag = JY_LF_P_fight
		add_mil_power = -1
		custom_tooltip = JY_LF_P_fight_t
		ai_chance = { 
			factor = 12
			modifier = {
				factor = 0.25
				ruler_has_personality = careful_personality
			}
			modifier = {
				factor = 2
				has_global_flag = JY_LF_P_weak
			}
			modifier = {
				factor = 4
				has_global_flag = JY_LF_P_weaker
			}
		}
	}
	
	option = {
		name = treasurefleet.2.c2
		set_global_flag = JY_LF_P_fight
		set_global_flag = JY_LF_P_fight_2
		add_mil_power = -1
		custom_tooltip = JY_LF_P_fight_t
		highlight = yes
		trigger = {
			ruler_has_personality = navigator_personality
		}
		ai_chance = { 
			factor = 50
			modifier = {
				factor = 0.5
				ruler_has_personality = careful_personality
			}
			modifier = {
				factor = 2
				has_global_flag = JY_LF_P_weak
			}
			modifier = {
				factor = 4
				has_global_flag = JY_LF_P_weaker
			}
		}
	}
	
	option = {
		name = treasurefleet.2.e
		set_global_flag = JY_LF_P_nah
		add_prestige = -1
		custom_tooltip = JY_LF_P_nah_t
		ai_chance = {
			factor = 25
			modifier = {
				factor = 2
				ruler_has_personality = careful_personality
			}
		}
	}
	
	after = {
		JY_LF_clear_pirate_status = yes
	}
}

#Tuuchuweg Colonized
province_event = {
	id = treasurefleet.3
	title = treasurefleet.3.t
	desc = treasurefleet.3.d
	picture = TREASURE_FLEET_SHIP_eventPicture
	
	is_triggered_only = yes
	
	option = {
		name = treasurefleet.3.a
		ai_chance = {
			factor = 95
		}
		if = {
			limit = {
				4990 = { province_has_center_of_trade_of_level = 1 }
				NOT = { 4990 = { province_has_center_of_trade_of_level = 2 } }
			}
			4990 = { add_center_of_trade_level = 1 }
		}
		else = {
			owner = { add_treasury = 100 }
		}
	}
	
	option = {
		name = treasurefleet.3.b
		ai_chance = {
			factor = 5
		}
		owner = {
			every_country = {
				limit = { culture_group = triunic }
				add_opinion = {
					who = PREV
					modifier = JY_LF_no_natives
				}
			}
		}
		owner = { set_country_flag = JY_LF_no_native }
	}
}

#Somyonghon Outcome
province_event = {
	id = treasurefleet.4
	title = treasurefleet.4.t
	desc = treasurefleet.4.d
	picture = NAVAL_MILITARY_eventPicture
	
	is_triggered_only = yes
	hidden = yes
	
	immediate = {
		if = {
			limit = { has_global_flag = JY_LF_som_permit }
			set_global_flag = JY_LF_som_loot
		}
		else_if = {
			limit = { has_global_flag = JY_LF_som_nope }
			#nothing happens
		}
		else = {
			random_list = {
				90 = {
					set_global_flag = JY_LF_som_loot
					add_devastation = 5
				}
				10 = {
					modifier = {
						factor = 3
						has_global_flag = JY_LF_somyonghon_caught_first
					}
					modifier = {
						factor = 3
						OR = {
							owner = { full_idea_group = spy_ideas }
							owner = { full_idea_group = defensive_ideas }
						}
					}
					if = {
						limit = { owner = { has_country_flag = JY_LF_somyonghon_caught_first } }
						JY_LF_damage_ship = yes
						owner = { country_event = { id = treasurefleet.6 } }
					}
					else = {
						owner = { country_event = { id = treasurefleet.5 } }
					}
				}
			}
		}
	}
	
	option = {
		name = treasurefleet.4.a
		if = {
			limit = { 5356 = { has_province_modifier = JY_LF_port } }
			province_event = { id = treasurefleet.90 }
		}
		else = {
			5356 = { province_event = { id = treasurefleet.7 days = 25 } }
		}
	}
}

#Caught Fleet looting Somyonghon (1st time per country)
country_event = {
	id = treasurefleet.5
	title = treasurefleet.5.t
	desc = {
		trigger = { religion = bangujonsi }
		desc = "treasurefleet.5.d1"
	}
	desc = {
		trigger = { NOT = { religion = bangujonsi } }
		desc = "treasurefleet.5.d2"
	}
	picture = TREASURE_FLEET_SHIP_eventPicture
	
	is_triggered_only = yes
	
	option = {
		name = treasurefleet.5.a
		trigger = { religion = bangujonsi }
		custom_tooltip = JY_LF_watchful
		set_country_flag = JY_LF_somyonghon_caught_first
		set_global_flag = JY_LF_som_news
	}
	option = {
		name = treasurefleet.5.b
		trigger = {
			NOT = {
				religion = bangujonsi
				tag = Y15
			}
		}
		custom_tooltip = JY_LF_watchful
		set_country_flag = JY_LF_somyonghon_caught_first
		set_global_flag = JY_LF_som_news
	}
	option = {
		name = treasurefleet.5.c
		trigger = { NOT = { religion = bangujonsi } }
		custom_tooltip = JY_LF_invited
		set_country_flag = JY_LF_somyonghon_caught_first
		set_global_flag = JY_LF_som_news
		set_global_flag = JY_LF_som_yes
		5419 = {
			add_province_modifier = {
				name = JY_LF_sell_relics
				duration = -1
			}
		}
	}
}

#Caught Fleet looting Somyonghon (Successive times)
country_event = {
	id = treasurefleet.6
	title = treasurefleet.6.t
	desc = treasurefleet.6.d
	picture = NAVAL_MILITARY_eventPicture
	
	is_triggered_only = yes
	
	option = {
		name = treasurefleet.6.a
		add_prestige = 5
		custom_tooltip = JY_LF_damage
	}
}

#Sail Past Buogoj
province_event = {
	id = treasurefleet.7
	title = treasurefleet.7.t
	desc = treasurefleet.7.d
	picture = NAVAL_MILITARY_eventPicture
	
	is_triggered_only = yes
	hidden = yes
	
	immediate = {
		set_province_flag = JY_LF_visited
	}
	
	option = {
		name = treasurefleet.7.a
		province_event = { id = treasurefleet.90 }
	}
}

#Fleet visits insert port here THIS IS THE DEFAULT EVENT THAT WILL HAPPEN SEVERAL TIMES PER DECENNIAL FLEET TRIP
province_event = {
	id = treasurefleet.8
	title = treasurefleet.8.t
	desc = {
		trigger = { JY_LF_jiantsiang = yes }
		desc = "treasurefleet.8.d21"
	}
	desc = {
		trigger = { JY_LF_beikdugang_nolights = yes }
		desc = "treasurefleet.8.d31"
	}
	desc = {
		trigger = { JY_LF_beikdugang_lights = yes }
		desc = "treasurefleet.8.d32"
	}
	desc = {
		trigger = { JY_LF_tianlou = yes }
		desc = "treasurefleet.8.d41"
	}
	desc = {
		trigger = { JY_LF_feiten_1 = yes }
		desc = "treasurefleet.8.d51"
	}
	desc = {
		trigger = { JY_LF_feiten_2 = yes }
		desc = "treasurefleet.8.d52"
	}
	desc = {
		trigger = { JY_LF_feiten_3 = yes }
		desc = "treasurefleet.8.d53"
	}
	desc = {
		trigger = { JY_LF_zyugok = yes }
		desc = "treasurefleet.8.d61"
	}
	desc = {
		trigger = { JY_LF_keoaden = yes }
		desc = "treasurefleet.8.d81"
	}
	desc = {
		trigger = { JY_LF_sarkhashabid = yes }
		desc = "treasurefleet.8.d131"
	}
	desc = {
		trigger = {
			NOT = {
				JY_LF_jiantsiang = yes
				JY_LF_beikdugang_nolights = yes
				JY_LF_beikdugang_lights = yes
				JY_LF_tianlou = yes
				JY_LF_feiten_1 = yes
				JY_LF_feiten_2 = yes
				JY_LF_feiten_3 = yes
				JY_LF_zyugok = yes
				JY_LF_keoaden = yes
				JY_LF_sarkhashabid = yes 
			}
		}
		desc = "treasurefleet.8.d"
	}
	picture = NANBAN_INCIDENT_eventPicture
	
	is_triggered_only = yes
	
	immediate = {
		JY_LF_visit = yes
	}
	
	option = {
		name = treasurefleet.8.a
		JY_LF_trade = yes
	}
}

#Hidden event that occurs for players with 3+ ports to reduce spam.
province_event = {
	id = treasurefleet.800
	title = treasurefleet.8.t
	desc = "treasurefleet.8.d"
	
	picture = NAVAL_MILITARY_eventPicture
	
	is_triggered_only = yes
	hidden = yes
	
	immediate = {
		JY_LF_visit = yes
	}
	
	option = {
		name = treasurefleet.8.a
		JY_LF_trade = yes
	}
}

#Pirate Outcome
province_event = {
	id = treasurefleet.9
	title = treasurefleet.9.t
	desc = treasurefleet.9.d
	picture = NAVAL_MILITARY_eventPicture
	
	is_triggered_only = yes
	hidden = yes
	
	immediate = {
		
	}
	
	option = {
		name = treasurefleet.9.a
		set_global_flag = JY_LF_P_met
		if = { #This later tells the owner of Zurkanrek if the pirates are weak and consider fighting them
			limit = { Y64 = { NOT = { navy_size = 10 } } }
			set_global_flag = JY_LF_P_weaker
		}
		else_if = {
			limit = { Y64 = { NOT = { navy_size = 20 } } }
			set_global_flag = JY_LF_P_weak
		}
		if = {
			limit = { has_global_flag = JY_LF_P_bribe }
			set_global_flag = JY_LF_bribed_P
			Y64 = { country_event = { id = treasurefleet.10 } }
		}
		else_if = {
			limit = { has_global_flag = JY_LF_P_sneak }
			random_list = {
				60 = {
					modifier = {
						factor = 1.33
						NOT = { exists = Y64 }
					}
					modifier = {
						factor = 1.33
						has_global_flag = JY_LF_P_sneak_2
					}
					set_global_flag = JY_LF_snuck_P
				}
				40 = {
					modifier = {
						factor = 0.5
						NOT = { exists = Y64 }
					}
					modifier = {
						factor = 1.33
						has_global_flag = JY_LF_P_sneak_2
					}
					Y64 = { country_event = { id = treasurefleet.11 } }
					set_global_flag = JY_LF_caught_P
				}
			}
		}
		else_if = {
			limit = { has_global_flag = JY_LF_P_fight }
			random_list = {
				40 = {
					modifier = {
						factor = 1.5
						has_global_flag = JY_LF_P_fight_2
					}
					modifier = {
						factor = 1.5
						Y64 = { NOT = { navy_size = 20 } }
					}
					modifier = {
						factor = 1.5
						Y64 = { NOT = { navy_size = 10 } }
					}
					set_global_flag = JY_LF_beat_P
				}
				60 = {
					modifier = {
						factor = 0.66
						Y64 = { NOT = { navy_size = 20 } }
					}
					modifier = {
						factor = 0.66
						Y64 = { NOT = { navy_size = 10 } }
					}
					modifier = {
						factor = 0.66
						has_global_flag = JY_LF_P_fight_2
					}
					modifier = {
						factor = 0
						Y64 = { NOT = { navy_size = 10 } }
						has_global_flag = JY_LF_P_fight_2
					}
					Y64 = { country_event = { id = treasurefleet.12 } }
					set_global_flag = JY_LF_lost_P
				}
			}
		}
		province_event = { id = treasurefleet.90 }
	}
}

#Pirates Bribed
country_event = {
	id = treasurefleet.10
	title = treasurefleet.10.t
	desc = {
		trigger = { NOT = { has_global_flag = JY_LF_P_bribe_2 } }
		desc = "treasurefleet.10.d1"
	}
	desc = {
		trigger = { has_global_flag = JY_LF_P_bribe_2 }
		desc = "treasurefleet.10.d2"
	}
	picture = NAVAL_MILITARY_eventPicture
	
	is_triggered_only = yes
	
	option = {
		name = treasurefleet.10.a
		if = {
			limit = { has_global_flag = JY_LF_P_bribe_2 }
			add_treasury = 15
		}
		else = { add_treasury = 25 }
		custom_tooltip = JY_LF_P_bribed_t
	}
}

#Pirates caught Fleet sneaking
province_event = {
	id = treasurefleet.11
	title = treasurefleet.11.t
	desc = {
		trigger = { NOT = { has_global_flag = JY_LF_P_bribe_2 } }
		desc = "treasurefleet.11.d1"
	}
	desc = {
		trigger = { has_global_flag = JY_LF_P_bribe_2 }
		desc = "treasurefleet.11.d2"
	}
	picture = WOKOU_INCIDENT_eventPicture
	
	is_triggered_only = yes
	
	option = {
		name = treasurefleet.11.a
		owner = { add_treasury = 40 }
		JY_LF_damage_ship = yes
		custom_tooltip = JY_LF_P_caught_t
	}
}

#Pirates defeat Fleet
country_event = {
	id = treasurefleet.12
	title = treasurefleet.12.t
	desc = {
		trigger = { NOT = { has_global_flag = JY_LF_P_fight_2 } }
		desc = "treasurefleet.12.d1"
	}
	desc = {
		trigger = { has_global_flag = JY_LF_P_fight_2 }
		desc = "treasurefleet.12.d2"
	}
	picture = BARBARY_PIRATES_eventPicture
	
	is_triggered_only = yes
	
	option = {
		name = treasurefleet.12.a
		if = {
			limit = { has_global_flag = JY_LF_P_fight_2 }
			add_prestige = 10
			add_navy_tradition = 10
			JY_LF_damage_ship = yes
		}
		else = {
			add_prestige = 5
			add_navy_tradition = 5
			JY_LF_damage_ship = yes
			JY_LF_damage_ship = yes
		}
		custom_tooltip = JY_LF_P_beaten_t
	}
}

#Beikudgang post-monopoly
province_event = {
	id = treasurefleet.13
	title = treasurefleet.13.t
	desc = treasurefleet.13.d
	picture = NANBAN_INCIDENT_eventPicture
	
	is_triggered_only = yes
	
	immediate = {
		set_province_flag = JY_LF_visited
		hidden_effect = {
			5226 = {
				change_variable = {
					which = JY_LF_ports
					value = 10
				}
			}
		}
		hidden_effect = { province_event = { id = treasurefleet.90 days = 180 } }
	}
	
	option = {
		name = treasurefleet.13.a
		highlight = yes
		add_province_modifier = {
			name = JY_LF_trading
			duration = 183
		}
		hidden_effect = {
			owner = {
				if = {
					limit = { has_country_modifier = JY_LF_recent_trade }
					remove_country_modifier = JY_LF_recent_trade
				}
				add_country_modifier = {
					name = JY_LF_recent_trade
					duration = 240
					hidden = yes
				}
			}
		}
		owner = {
			add_country_modifier = {
				name = JY_LF_Y15_mono_trade
				duration = 183
			}
		}
		if = {
			limit = {
				owner = { mission_completed = Y15_goods_purse }
				NOT = { has_global_flag = JY_LF_Y15_perks }
			}
			owner = { JY_LF_Y15 = yes }
		}
		JY_LF_learn = yes
		JY_LF_teach = yes
	}
}

#Fleet Flavor 20-40

#Fleet competes with burghers
province_event = {
	id = treasurefleet.20
	title = treasurefleet.20.t
	desc = treasurefleet.20.d
	picture = TREASURE_FLEET_SHIP_eventPicture
	
	is_triggered_only = yes
	
	immediate = {
		JY_LF_visit = yes
	}
	
	option = {
		name = treasurefleet.20.a
		JY_LF_trade = yes
		owner = {
			add_estate_loyalty = {
				estate = estate_burghers
				loyalty = -10
			}
			add_estate_influence_modifier = {
				estate = estate_burghers
				desc = EST_VAL_JY_LF_BURGHER_L
				influence = -10
				duration = 1825
			}
		}
	}
	
	option = {
		name = treasurefleet.20.b
		owner = {
			add_estate_loyalty = {
				estate = estate_burghers
				loyalty = 10
			}
			add_estate_influence_modifier = {
				estate = estate_burghers
				desc = EST_VAL_JY_LF_BURGHER_W
				influence = 10
				duration = 1825
			}
		}
	}
}

#Fleet wants repairs
province_event = {
	id = treasurefleet.21
	title = treasurefleet.21.t
	desc = treasurefleet.21.d
	picture = TREASURE_FLEET_SHIP_eventPicture
	
	is_triggered_only = yes
	
	immediate = {
		JY_LF_visit = yes
	}
	
	option = { #Only removes top level damage
		name = treasurefleet.21.a
		ai_chance = { 
			factor = 50 
			modifier = {
				factor = 0.1
				owner = { num_of_loans = 1 }
			}
		}
		owner = {
			add_treasury = -15
			add_prestige = 10
			add_dip_power = 10
		}
		custom_tooltip = JY_LF_fix
		if = { 
			limit = { has_global_flag = JY_LF_damage_5 }
			clr_global_flag = JY_LF_damage_5
		}
		else_if = {
			limit = { has_global_flag = JY_LF_damage_4 }
			clr_global_flag = JY_LF_damage_4
		}
		else_if = {
			limit = { has_global_flag = JY_LF_damage_3 }
			clr_global_flag = JY_LF_damage_3
		}
		else_if = {
			limit = { has_global_flag = JY_LF_damage_2 }
			clr_global_flag = JY_LF_damage_2
		}
		else = {
			clr_global_flag = JY_LF_damage_1
		}
		JY_LF_trade = yes
	}
	
	option = {
		name = treasurefleet.21.b
		ai_chance = { 
			factor = 50
		}
		owner = { add_prestige = -5 }
		JY_LF_trade = yes
	}
	
	option = {
		name = treasurefleet.21.c
		ai_chance = { 
			factor = 500
		}
		highlight = yes
		trigger = {
			owner = { any_owned_province = { trade_goods = naval_supplies } }
		}
		owner = { 
			add_prestige = 5
			add_dip_power = 10
		}
		JY_LF_trade = yes
	}
}

#Fleet upgrades port (post-1500)
province_event = {
	id = treasurefleet.22
	title = treasurefleet.22.t
	desc = treasurefleet.22.d
	picture = TREASURE_FLEET_SHIP_eventPicture
	
	is_triggered_only = yes
	
	immediate = {
		JY_LF_visit = yes
	}
	
	option = {
		name = treasurefleet.22.a
		if = {
			limit = {
				ROOT = { province_has_center_of_trade_of_level = 1 }
				NOT = { ROOT = { province_has_center_of_trade_of_level = 2 } }
			}
			ROOT = { add_center_of_trade_level = 1 }
		}
		JY_LF_trade = yes
	}
}

#Fleet Wants Iron
province_event = {
	id = treasurefleet.23
	title = treasurefleet.23.t
	desc = treasurefleet.23.d
	picture = TREASURE_FLEET_SHIP_eventPicture
	
	is_triggered_only = yes
	
	immediate = {
		JY_LF_visit = yes
	}
	
	option = {
		name = treasurefleet.23.a
		owner = {
			add_mil_power = -15
			add_treasury = 50
		}
		JY_LF_trade = yes
	}
	
	option = {
		name = treasurefleet.23.b
		owner = { add_prestige = -5 }
		JY_LF_trade = yes
	}
	
	option = {
		name = treasurefleet.23.c
		highlight = yes
		trigger = { owner = { iron = 1 } }
		owner = {
			add_mil_power = -5
			add_treasury = 50
		}
		JY_LF_trade = yes
	}
}

#Fleet Religious Strife (DISABLED)
#province_event = {
#	id = treasurefleet.24
#	title = treasurefleet.24.t
#	desc = treasurefleet.24.d
#	picture = NAVAL_MILITARY_eventPicture
#	
#	is_triggered_only = yes
#	
#	immediate = {
#		JY_LF_visit = yes
#	}
#	
#	option = {
#		name = treasurefleet.24.a
#		owner = { add_mil_power = -15 }
#		JY_LF_damage_ship = yes
#		JY_LF_trade = yes
#	}
#	
#	option = {
#		name = treasurefleet.24.b
#		add_devastation = 5
#		JY_LF_trade = yes
#	}
#	
#	option = {
#		name = treasurefleet.24.c
#		highlight = yes
#		trigger = { owner = { religious_ideas = 3 } }
#		spawn_rebels = {
#			type = kodave_followers_rebels
#			size = 1
#		}
#		JY_LF_trade = yes
#	}
#}

#Centaur stow-away
province_event = {
	id = treasurefleet.25
	title = treasurefleet.25.t
	desc = treasurefleet.25.d
	picture = TREASURE_FLEET_SHIP_eventPicture
	
	is_triggered_only = yes
	
	immediate = {
		JY_LF_visit = yes
	}
	
	option = {
		name = treasurefleet.25.a
		trigger = {
			owner = { has_idea_group = exploration_ideas }
		}
		highlight = yes
		owner = {
			define_explorer = {
				shock = 0
				fire = 0
				manuever = 0
				siege = 0
				name = "Ushen Shingyuul"
			}
			medium_increase_of_centaur_tolerance_effect = yes
		}
		JY_LF_trade = yes
	}
	
	option = {
		name = treasurefleet.25.b
		owner = {
			add_sailors = 1
			small_increase_of_centaur_tolerance_effect = yes
		}
		JY_LF_trade = yes
	}
	
	option = {
		name = treasurefleet.25.c
		owner = {
			define_general = {
				shock = 3
				fire = 0
				manuever = 4
				siege = 0
				name = "Ushen Shingyuul"
			}
			small_decrease_of_centaur_tolerance_effect = yes
		}
	}
}

#Decide next location
province_event = {
	id = treasurefleet.90
	title = treasurefleet.90.t
	desc = treasurefleet.90.d
	picture = NAVAL_MILITARY_eventPicture
	
	is_triggered_only = yes
	hidden = yes
	
	immediate = {
		
	}
	
	option = {
		name = treasurefleet.90.a
		if = { #Buogoj, closed at start
			limit = {
				5356 = {
					has_province_modifier = JY_LF_port
					NOT = { has_province_flag = JY_LF_visited }
				}
			}
			5356 = { province_event = { id = treasurefleet.91 } }
		}
		else_if = { #Jiantsang, first stop at game start
			limit = {
				4925 = {
					has_province_modifier = JY_LF_port
					NOT = { has_province_flag = JY_LF_visited }
				}
			}
			4925 = { province_event = { id = treasurefleet.91 } }
		}
		else_if = { #Beikdugang, loves them
			limit = {
				4907 = {
					has_province_modifier = JY_LF_port
					NOT = { has_province_flag = JY_LF_visited }
				}
			}
			4907 = { province_event = { id = treasurefleet.91 } }
		}
		else_if = { #Beikdugang, MT post monopolization
			limit = {
				4907 = {
					has_province_modifier = JY_LF_port_Y15_mono
					NOT = { has_province_flag = JY_LF_visited }
				}
			}
			4907 = { province_event = { id = treasurefleet.92 } }
		}
		else_if = { #Tianlou, river trade
			limit = {
				4871 = {
					has_province_modifier = JY_LF_port
					NOT = { has_province_flag = JY_LF_visited }
				}
			}
			4871 = { province_event = { id = treasurefleet.91 } }
		}
		else_if = { #Feiten
			limit = {
				4879 = {
					has_province_modifier = JY_LF_port
					NOT = { has_province_flag = JY_LF_visited }
				}
			}
			4879 = { province_event = { id = treasurefleet.91 } }
		}
		else_if = { #Cuihiok, former Zyujyut capital
			limit = {
				4884 = {
					has_province_modifier = JY_LF_port
					NOT = { has_province_flag = JY_LF_visited }
				}
			}
			4884 = { province_event = { id = treasurefleet.91 } }
		}
		else_if = { #Zyugok, current Zyujyut capital
			limit = {
				4839 = {
					has_province_modifier = JY_LF_port
					NOT = { has_province_flag = JY_LF_visited }
				}
			}
			4839 = { province_event = { id = treasurefleet.91 } }
		}
		else_if = { #Keoaden, has dwarves. Last stop if ruler said to avoid pirates.
			limit = {
				4955 = {
					has_province_modifier = JY_LF_port
					NOT = { has_province_flag = JY_LF_visited }
				}
			}
			4955 = { province_event = { id = treasurefleet.91 } }
		}
		else_if = { #Note this else if covers every stop past and including the pirates.
			limit = { NOT = { has_global_flag = JY_LF_P_nah } } #Fleet goes home here if ordered to not interact with pirates at start.
			if = {
				limit = { NOT = { has_global_flag = JY_LF_P_met } }
				4773 = { province_event = { id = treasurefleet.9 } } #Meijyun, province irrelevant it is Pinghoi tag that represents local pirates.
			}
			else_if = { #Arawkelin, last stop normally.
				limit = {
					4963 = {
						has_province_modifier = JY_LF_port
						NOT = { has_province_flag = JY_LF_visited }
					}
				}
				4963 = { province_event = { id = treasurefleet.91 } }
			}
			else_if = { #Hasiksibou
				limit = {
					4962 = {
						has_province_modifier = JY_LF_port
						NOT = { has_province_flag = JY_LF_visited }
					}
				}
				4962 = { province_event = { id = treasurefleet.91 } }
			}
			else_if = { #Cay Cam Sinh, biggest not Rahen port
				limit = {
					4701 = {
						has_province_modifier = JY_LF_port
						NOT = { has_province_flag = JY_LF_visited }
					}
				}
				4701 = { province_event = { id = treasurefleet.91 } }
			}
			else_if = { #Prukakhim, wannabe pirates
				limit = {
					4570 = {
						has_province_modifier = JY_LF_port
						NOT = { has_province_flag = JY_LF_visited }
					}
				}
				4570 = { province_event = { id = treasurefleet.91 } }
			}
			else_if = { #Sramaya, biggest rahen port (if not biggest haless port)
				limit = {
					4420 = {
						has_province_modifier = JY_LF_port
						NOT = { has_province_flag = JY_LF_visited }
					}
				}
				4420 = { province_event = { id = treasurefleet.91 } }
			}
			else_if = { #Sardika
				limit = {
					4380 = {
						has_province_modifier = JY_LF_port
						NOT = { has_province_flag = JY_LF_visited }
					}
				}
				4380 = { province_event = { id = treasurefleet.91 } }
			}
			else_if = { #Sarkhashabid
				limit = {
					4367 = {
						has_province_modifier = JY_LF_port
						NOT = { has_province_flag = JY_LF_visited }
					}
				}
				4367 = { province_event = { id = treasurefleet.91 } }
			}
			else_if = { #Avhavubhiya
				limit = {
					4362 = {
						has_province_modifier = JY_LF_port
						NOT = { has_province_flag = JY_LF_visited }
					}
				}
				4362 = { province_event = { id = treasurefleet.91 } }
			}
			else_if = { #Davharral
				limit = {
					2913 = {
						has_province_modifier = JY_LF_port
						NOT = { has_province_flag = JY_LF_visited }
					}
				}
				2913 = { province_event = { id = treasurefleet.91 } }
			}
			else = {
				5226 = { province_event = { id = treasurefleet.100 days = 150 } } #Go home
			}
		}
		else = {
			5226 = { province_event = { id = treasurefleet.100 days = 120 } } #Go home
		}
	}
}

#Decide port outcome
province_event = {
	id = treasurefleet.91
	title = treasurefleet.91.t
	desc = treasurefleet.91.d
	picture = NAVAL_MILITARY_eventPicture
	
	is_triggered_only = yes
	hidden = yes
	
	immediate = {
		if = {
			limit = {
				owner = {
					NOT = { ai = yes } #AI doesn't care about spam
					num_of_owned_provinces_with = {
						value = 3
						has_province_modifier = JY_LF_port
					}
					NOT = { 
						has_country_flag = JY_LF_wants_news 
						has_country_flag = JY_LF_wants_no_news
					}
				}
			}
			owner = { country_event = { id = treasurefleet.93 } }
		}
		if = {
			limit = {
				owner = {
					has_country_flag = JY_LF_wants_no_news
					any_owned_province = { #still see one event
						has_province_modifier = JY_LF_port
						has_province_flag = JY_LF_visited
					}
				}
				NOT = { has_province_flag = JY_LF_always_go }
			}
			province_event = { id = treasurefleet.800 days = 30 } #Normal Encounter, but hidden to reduce spam
		}
		else = {
			random_list = {
				50 = { province_event = { id = treasurefleet.8 days = 30 } } #Normal Encounter
				50 = { #Flavor Encounter (WIP)
					random_list = {
						25 = { #Fleet vs Burghers
							modifier = {
								factor = 0
								NOT = { owner = { has_estate = estate_burghers } }
							}
							province_event = { id = treasurefleet.20 days = 30 }
						}
						25 = { #Fleet needs Repairs
							modifier = {
								factor = 0
								NOT = { has_global_flag = JY_LF_damage_1 }
							}
							province_event = { id = treasurefleet.21 days = 30 }
						}
						25 = { #Port upgrades to level 2
							modifier = {
								factor = 0
								OR = {
									province_has_center_of_trade_of_level = 2
									NOT = { province_has_center_of_trade_of_level = 1 }
									NOT = { is_year = 1500 }
								}
							}
							modifier = {
								factor = 5
								is_year = 1600
							}
							province_event = { id = treasurefleet.22 days = 30 }
						}
						25 = { #Fleet wants Iron
							modifier = {
								factor = 0.1 #To reduce spam if this is the only one you are eligible for
								NOT = { has_global_flag = JY_LF_damage_1 }
								NOT = { owner = { has_estate = estate_burghers } }
								NOT = {
									any_country = {
										OR = {
											is_in_war = {
												casus_belli = cb_federation_religious_war
											}
											is_in_war = {
												casus_belli = cb_federation_religious_war_kalyin
											}
										}
									}
								}
								#NOT = {
								#	has_global_flag = federation_crisis_religious
								#	has_global_flag = second_federation_religious_war
								#}
							}
							province_event = { id = treasurefleet.23 days = 30 }
						}
						#100 = { #Religious Strife
						#	modifier = {
						#		factor = 0
						#		NOT = {
						#			any_country = {
						#				OR = {
						#					is_in_war = {
						#						casus_belli = federation_religious_war
						#					}
						#					is_in_war = {
						#						casus_belli = federation_religious_war_kalyin
						#					}
						#				}
						#			}
						#		}
						#		#NOT = {
						#		#	has_global_flag = federation_crisis_religious
						#		#	has_global_flag = second_federation_religious_war
						#		#}
						#	}
						#	province_event = { id = treasurefleet.24 days = 30 }
						#}
						5 = {		#need to keep this rare, but if more events get made should bump this up a bit
							modifier = {
								factor = 0
								NOT = {
									owner = {
										has_country_modifier = racial_pop_centaur_expulsion
										has_country_modifier = racial_pop_centaur_purge
									}
								}
							}
							province_event = { id = treasurefleet.25 days = 30 }
						}
						1 = { province_event = { id = treasurefleet.8 days = 30 } } #Normal Encounter (included in case no other flavor event is possible)
					}
				}
			}
		}
	}
	
	option = {
		name = treasurefleet.91.a
		#N/A
	}
}

#Beikdugang MT Monopoly Timer
province_event = {
	id = treasurefleet.92
	title = treasurefleet.92.t
	desc = treasurefleet.92.d
	picture = NAVAL_MILITARY_eventPicture
	
	is_triggered_only = yes
	hidden = yes
	
	immediate = {
		province_event = { id = treasurefleet.13 days = 30 }
	}
	
	option = {
		name = treasurefleet.92.a
		#N/A
	}
}

#Choose to see multiple events
country_event = {
	id = treasurefleet.93
	title = treasurefleet.93.t
	desc = treasurefleet.93.d
	picture = TRIBUTARY_FLEET_eventPicture
	
	is_triggered_only = yes
	
	option = {
		name = treasurefleet.93.a
		set_country_flag = JY_LF_wants_news
		custom_tooltip = JY_LF_wants_news_t
	}
	
	option = {
		name = treasurefleet.93.b
		set_country_flag = JY_LF_wants_no_news
		custom_tooltip = JY_LF_wants_no_news_t
		if = {
			limit = { tag = Y15 }
			custom_tooltip = JY_LF_wants_no_news_Y15_t
		}
	}
}

#Calculate Fleet Results
province_event = {
	id = treasurefleet.100
	title = treasurefleet.100.t
	desc = treasurefleet.100.d
	picture = NAVAL_MILITARY_eventPicture
	
	is_triggered_only = yes
	hidden = yes
	
	immediate = {
		hidden_effect = {
			JY_LF_clear_visited = yes
			JY_LF_clear_pirate_choice = yes
			clr_global_flag = JY_LF_federation_crisis
			JY_LF_calculate_total = yes
			# set_variable = {
				# which = JY_LF_total
				# which = JY_LF_total
			# }
		}
	}
	option = {
		name = treasurefleet.100.a
		if = {
			limit = { has_global_flag = JY_LF_som_news }
			clr_global_flag = JY_LF_som_permit
			clr_global_flag = JY_LF_som_nope
			if = {
				limit = { has_global_flag = JY_LF_som_yes }
				owner = { country_event = { id = treasurefleet.103 } }
				clr_global_flag = JY_LF_som_yes
			}
			else = {
				owner = { country_event = { id = treasurefleet.101 } }
			}
			clr_global_flag = JY_LF_som_news
		}
		owner = { country_event = { id = treasurefleet.102 } }
	}
}

#Continue Looting choice
country_event = {
	id = treasurefleet.101
	title = treasurefleet.101.t
	desc = treasurefleet.101.d
	picture = WOKOU_INCIDENT_eventPicture
	
	is_triggered_only = yes
	
	option = {
		name = treasurefleet.101.a
		set_global_flag = JY_LF_som_nope
		custom_tooltip = JY_LF_som_nope_t
		add_prestige = -5
		ai_chance = {
			factor = 50
			modifier = {
				factor = 3
				ruler_has_personality = careful_personality
			}
		}
	}
	option = {
		name = treasurefleet.101.b
		custom_tooltip = JY_LF_som_yep_t
		add_prestige = 5
		ai_chance = { 
			factor = 50
		}
	}
}

#Results
country_event = {
	id = treasurefleet.102
	title = treasurefleet.102.t
	desc = treasurefleet.102.d
	picture = TRIBUTARY_FLEET_eventPicture
	
	is_triggered_only = yes
	immediate = {
		hidden_effect = {
			set_variable = {
				which = JY_LF_total
				which = FROM
			}
		}
	}
	
	option = {
		name = treasurefleet.102.a
		JY_LF_pirate_status = yes
		JY_LF_clear_damage = yes
		if = {
			limit = { has_global_flag = JY_LF_som_loot }
			clr_global_flag = JY_LF_som_loot
			custom_tooltip = JY_LF_som_loot_t
			add_treasury = 25
			add_adm_power = 25
			add_dip_power = 25
			add_mil_power = 25
		}
		if = {
			limit = {
				OR = {
					4990 = { owner = { NOT = { has_country_flag = JY_LF_no_native } } }
					4990 = { NOT = { is_city = yes } }
				}
			}
			custom_tooltip = JY_LF_tuuchuweg_trade
			add_treasury = 10
		}
		if = {
			limit = { has_global_flag = JY_LF_somyonghon_caught_first }
			country_event = { id = treasurefleet.101 }
		}
		custom_tooltip = JY_LF_cash
		currency_effect = { currency=treasury addTo=ROOT which=JY_LF_total }
		if = {
			limit = { has_global_flag = JY_LF_new_institution }
			clr_global_flag = JY_LF_new_institution
			custom_tooltip = JY_LF_spread
			add_treasury = -40
		}
		FROM = { JY_LF_teach_self = yes }
		if = {
			limit = {
				tag = J33
				has_global_flag = JY_LF_institution_speed_2 #Beikdugang MT
			}
			random_owned_province = { 
				limit = { development = 15 }
				JY_LF_teach = yes
			}
		}
		if = {
			limit = { has_global_flag = JY_LF_monopoly_Y15 } #Beikdugang MT
			custom_tooltip = JY_LF_Y15_monopoly
		}
		#if = { #Sovkelqur MT
		#	limit = { 
		#		OR = {
		#			has_country_flag = treasure_fleet_level_1
		#			has_country_flag = treasure_fleet_level_2
		#			has_country_flag = treasure_fleet_level_3
		#		}
		#	}
		#	5226 = {
		#		add_province_triggered_modifier = boons_from_fleet_trigger
		#	}
		#}
	}
}

#Looting Permitted
country_event = {
	id = treasurefleet.103
	title = treasurefleet.103.t
	desc = treasurefleet.103.d
	picture = TREASURE_FLEET_SHIP_eventPicture
	
	is_triggered_only = yes
	
	option = {
		name = treasurefleet.103.a
		set_global_flag = JY_LF_som_permit
		custom_tooltip = JY_LF_som_permit_t
	}
}